{"meta":{"message":"List of Collections","limit":10,"next":2,"prev":null,"last":287,"count":2864,"page":1,"pages":287,"epoch":1603866902,"code":200},"data":[{"date":"2020-08-05","cashier":"Joey Dy","collections":[{"cnt":1,"sno":"2020-1234","received_from":"Juan Dela Cruz","level":7,"section":"Earth","status":"ESC","particulars":"Initial Payment","ref_no":"OR 12345","amount":12345,"total_due":10203,"total_paid":1203,"balance":9000},{"cnt":2,"sno":"2020-1234","received_from":"Juan Dela Cruz","level":7,"section":"Earth","status":"ESC","particulars":"Initial Payment","ref_no":"OR 12345","amount":12345,"total_due":10203,"total_paid":1203,"balance":9000},{"cnt":3,"sno":"2020-1234","received_from":"Juan Dela Cruz","level":7,"section":"Earth","status":"ESC","particulars":"Initial Payment","ref_no":"OR 12345","amount":12345,"total_due":10203,"total_paid":1203,"balance":9000},{"cnt":4,"sno":"2020-1234","received_from":"Juan Dela Cruz","level":7,"section":"Earth","status":"ESC","particulars":"Initial Payment","ref_no":"OR 12345","amount":12345,"total_due":10203,"total_paid":1203,"balance":9000},{"cnt":5,"sno":"2020-1234","received_from":"Juan Dela Cruz","level":7,"section":"Earth","status":"ESC","particulars":"Initial Payment","ref_no":"OR 12345","amount":12345,"total_due":10203,"total_paid":1203,"balance":9000},{"cnt":6,"sno":"2020-1234","received_from":"Juan Dela Cruz","level":7,"section":"Earth","status":"ESC","particulars":"Initial Payment","ref_no":"OR 12345","amount":12345,"total_due":10203,"total_paid":1203,"balance":9000},{"cnt":7,"sno":"2020-1234","received_from":"Juan Dela Cruz","level":7,"section":"Earth","status":"ESC","particulars":"Initial Payment","ref_no":"OR 12345","amount":12345,"total_due":10203,"total_paid":1203,"balance":9000},{"cnt":8,"sno":"2020-1234","received_from":"Juan Dela Cruz","level":7,"section":"Earth","status":"ESC","particulars":"Initial Payment","ref_no":"OR 12345","amount":12345,"total_due":10203,"total_paid":1203,"balance":9000}]}]}