{"meta":{"message":"List of Collections","limit":10,"next":2,"prev":null,"last":287,"count":2864,"page":1,"pages":287,"epoch":1603937440,"code":200},"data":[{"collections":[{"cnt":1,"name":"Juan Dela Cruz","year_level":"Gr. 7","section":"Sampaguita","total_fees":9999.99,"subsidy":999.99,"fee_dues":9000,"payments":[{"bill_month":"UPONNROL","payment":1000,"balance":8000},{"bill_month":"SEP2020","payment":1000,"balance":7000},{"bill_month":"OCT2020","payment":1000,"balance":6000},{"bill_month":"NOV2020","payment":1000,"balance":5000},{"bill_month":"DEC2020","payment":1000,"balance":4000},{"bill_month":"JAN2021","payment":1000,"balance":3000},{"bill_month":"FEB2021","payment":1000,"balance":2000},{"bill_month":"MAR2021","payment":1000,"balance":1000},{"bill_month":"APR2021","payment":1000,"balance":0}]},{"cnt":2,"name":"Juan Dela Cruz","year_level":"Gr. 7","section":"Sampaguita","total_fees":9999.99,"subsidy":999.99,"fee_dues":9000,"payments":[{"bill_month":"UPONNROL","payment":1000,"balance":8000},{"bill_month":"SEP2020","payment":1000,"balance":7000},{"bill_month":"OCT2020","payment":1000,"balance":6000},{"bill_month":"NOV2020","payment":1000,"balance":5000},{"bill_month":"DEC2020","payment":1000,"balance":4000},{"bill_month":"JAN2021","payment":1000,"balance":3000},{"bill_month":"FEB2021","payment":1000,"balance":2000},{"bill_month":"MAR2021","payment":1000,"balance":1000},{"bill_month":"APR2021","payment":1000,"balance":0}]},{"cnt":3,"name":"Juan Dela Cruz","year_level":"Gr. 7","section":"Sampaguita","total_fees":9999.99,"subsidy":999.99,"fee_dues":9000,"payments":[{"bill_month":"UPONNROL","payment":1000,"balance":8000},{"bill_month":"SEP2020","payment":1000,"balance":7000},{"bill_month":"OCT2020","payment":1000,"balance":6000},{"bill_month":"NOV2020","payment":1000,"balance":5000},{"bill_month":"DEC2020","payment":1000,"balance":4000},{"bill_month":"JAN2021","payment":1000,"balance":3000},{"bill_month":"FEB2021","payment":1000,"balance":2000},{"bill_month":"MAR2021","payment":1000,"balance":1000},{"bill_month":"APR2021","payment":1000,"balance":0}]},{"cnt":4,"name":"Juan Dela Cruz","year_level":"Gr. 7","section":"Sampaguita","total_fees":9999.99,"subsidy":999.99,"fee_dues":9000,"payments":[{"bill_month":"UPONNROL","payment":1000,"balance":8000},{"bill_month":"SEP2020","payment":1000,"balance":7000},{"bill_month":"OCT2020","payment":1000,"balance":6000},{"bill_month":"NOV2020","payment":1000,"balance":5000},{"bill_month":"DEC2020","payment":1000,"balance":4000},{"bill_month":"JAN2021","payment":1000,"balance":3000},{"bill_month":"FEB2021","payment":1000,"balance":2000},{"bill_month":"MAR2021","payment":1000,"balance":1000},{"bill_month":"APR2021","payment":1000,"balance":0}]},{"cnt":5,"name":"Juan Dela Cruz","year_level":"Gr. 7","section":"Sampaguita","total_fees":9999.99,"subsidy":999.99,"fee_dues":9000,"payments":[{"bill_month":"UPONNROL","payment":1000,"balance":8000},{"bill_month":"SEP2020","payment":1000,"balance":7000},{"bill_month":"OCT2020","payment":1000,"balance":6000},{"bill_month":"NOV2020","payment":1000,"balance":5000},{"bill_month":"DEC2020","payment":1000,"balance":4000},{"bill_month":"JAN2021","payment":1000,"balance":3000},{"bill_month":"FEB2021","payment":1000,"balance":2000},{"bill_month":"MAR2021","payment":1000,"balance":1000},{"bill_month":"APR2021","payment":1000,"balance":0}]}]}]}